Chapter 2 Introduction | A Minimal Book Example
…
Show data

cryptodata

## # A tibble: 195,865 x 27
##    pair  symbol quote_currency ask_1_price ask_1_quantity ask_2_price ask_2_quantity ask_3_price ask_3_quantity ask_4_price ask_4_quantity ask_5_price ask_5_quantity
##    <chr> <chr>  <chr>                <dbl>          <dbl>       <dbl>          <dbl>       <dbl>          <dbl>       <dbl>          <dbl>       <dbl>          <dbl>
##  1 BTCU~ BTC    USD             13028.              0.181  13028.              2      13029.             0.0187  13029.             0.0647  13029.              2    
##  2 ETHU~ ETH    USD               406.              0.4      406.              1.08     406.             7.5       406.             3.21      406.              2.16 
##  3 EOSU~ EOS    USD                 2.71           70          2.71          600          2.71         196           2.71         600           2.71           48.1  
##  4 LTCU~ LTC    USD                58.8             3.75      58.8             6.5       58.8           45          58.8           60          58.8             0.02 
##  5 BSVU~ BSV    USD               181.             18        181.              0.6      181.             1.38      181.             5         181.             11.1  
##  6 ADAU~ ADA    USD                 0.106         775          0.106        4495          0.106       2635           0.106         10           0.106        6355    
##  7 ZECU~ ZEC    USD                62.8             9.80      62.8             2.08      62.8            2.6        62.8            8.31       62.8            57    
##  8 TRXU~ TRX    USD                 0.0270     125000          0.0270       1050          0.0270    125000           0.0270      3630           0.0270      48256    
##  9 HTUSD HT     USD                 4.42          677.         4.43           68.8        4.43        1544.          4.43         956.          4.44         3911.   
## 10 XMRU~ XMR    USD               131.              0.004    131.              0.106    131.             1.2       131.             2.56      131.              0.008
## # ... with 195,855 more rows, and 14 more variables: bid_1_price <dbl>, bid_1_quantity <dbl>, bid_2_price <dbl>, bid_2_quantity <dbl>, bid_3_price <dbl>,
## #   bid_3_quantity <dbl>, bid_4_price <dbl>, bid_4_quantity <dbl>, bid_5_price <dbl>, bid_5_quantity <dbl>, date_time_utc <dttm>, date <date>, pkDummy <chr>,
## #   pkey <chr>
…
## Warning: package 'tidyr' was built under R version 3.6.3

## Warning: package 'purrr' was built under R version 3.6.3

## Warning: package 'dplyr' was built under R version 3.6.3

## -- Conflicts ------------------------------------------ tidyverse_conflicts() --
## x dplyr::filter() masks stats::filter()
## x dplyr::lag()    masks stats::lag()

cryptodata <- group_by(cryptodata, symbol)
nest(cryptodata)

## # A tibble: 210 x 2
## # Groups:   symbol [210]
##    symbol data                 
##    <chr>  <list>               
##  1 BTC    <tibble [1,857 x 26]>
##  2 ETH    <tibble [981 x 26]>  
##  3 EOS    <tibble [1,810 x 26]>
##  4 LTC    <tibble [1,857 x 26]>
##  5 BSV    <tibble [1,100 x 26]>
##  6 ADA    <tibble [743 x 26]>  
##  7 ZEC    <tibble [698 x 26]>  
##  8 TRX    <tibble [1,078 x 26]>
##  9 HT     <tibble [1,792 x 26]>
## 10 XMR    <tibble [1,851 x 26]>
## # ... with 200 more rows

What does DT look like

library(DT)

## Warning: package 'DT' was built under R version 3.6.3

cryptodata

## # A tibble: 195,865 x 27
## # Groups:   symbol [210]
##    pair  symbol quote_currency ask_1_price ask_1_quantity ask_2_price ask_2_quantity ask_3_price ask_3_quantity ask_4_price ask_4_quantity ask_5_price ask_5_quantity
##    <chr> <chr>  <chr>                <dbl>          <dbl>       <dbl>          <dbl>       <dbl>          <dbl>       <dbl>          <dbl>       <dbl>          <dbl>
##  1 BTCU~ BTC    USD             13028.              0.181  13028.              2      13029.             0.0187  13029.             0.0647  13029.              2    
##  2 ETHU~ ETH    USD               406.              0.4      406.              1.08     406.             7.5       406.             3.21      406.              2.16 
##  3 EOSU~ EOS    USD                 2.71           70          2.71          600          2.71         196           2.71         600           2.71           48.1  
##  4 LTCU~ LTC    USD                58.8             3.75      58.8             6.5       58.8           45          58.8           60          58.8             0.02 
##  5 BSVU~ BSV    USD               181.             18        181.              0.6      181.             1.38      181.             5         181.             11.1  
##  6 ADAU~ ADA    USD                 0.106         775          0.106        4495          0.106       2635           0.106         10           0.106        6355    
##  7 ZECU~ ZEC    USD                62.8             9.80      62.8             2.08      62.8            2.6        62.8            8.31       62.8            57    
##  8 TRXU~ TRX    USD                 0.0270     125000          0.0270       1050          0.0270    125000           0.0270      3630           0.0270      48256    
##  9 HTUSD HT     USD                 4.42          677.         4.43           68.8        4.43        1544.          4.43         956.          4.44         3911.   
## 10 XMRU~ XMR    USD               131.              0.004    131.              0.106    131.             1.2       131.             2.56      131.              0.008
## # ... with 195,855 more rows, and 14 more variables: bid_1_price <dbl>, bid_1_quantity <dbl>, bid_2_price <dbl>, bid_2_quantity <dbl>, bid_3_price <dbl>,
## #   bid_3_quantity <dbl>, bid_4_price <dbl>, bid_4_quantity <dbl>, bid_5_price <dbl>, bid_5_quantity <dbl>, date_time_utc <dttm>, date <date>, pkDummy <chr>,
## #   pkey <chr>

And nested

nest(cryptodata)

## # A tibble: 210 x 2
## # Groups:   symbol [210]
##    symbol data                 
##    <chr>  <list>               
##  1 BTC    <tibble [1,857 x 26]>
##  2 ETH    <tibble [981 x 26]>  
##  3 EOS    <tibble [1,810 x 26]>
##  4 LTC    <tibble [1,857 x 26]>
##  5 BSV    <tibble [1,100 x 26]>
##  6 ADA    <tibble [743 x 26]>  
##  7 ZEC    <tibble [698 x 26]>  
##  8 TRX    <tibble [1,078 x 26]>
##  9 HT     <tibble [1,792 x 26]>
## 10 XMR    <tibble [1,851 x 26]>
## # ... with 200 more rows
